{
  "data": [
    {
      "name": "Edge",
      "schema": 1737763503442,
      "status": "planned",
      "version": "135",
      "browserid": "edge",
      "id": "2966c2e2-2f1a-4ccc-a0e9-5f14fe995f08",
      "last_modified": 1737958890365
    },
    {
      "name": "Deno",
      "schema": 1737763503219,
      "status": "current",
      "version": "2.1",
      "browserid": "deno",
      "id": "d98ddb8c-628b-4769-beb1-c1d91c4879cd",
      "last_modified": 1737958890362
    },
    {
      "name": "Edge",
      "schema": 1737763503366,
      "status": "nightly",
      "version": "134",
      "browserid": "edge",
      "id": "d23388fd-74d6-41d4-af81-5dbd58e6ca92",
      "last_modified": 1737958890355
    },
    {
      "name": "Edge",
      "schema": 1737763503294,
      "status": "beta",
      "version": "133",
      "browserid": "edge",
      "id": "a4608ee5-515c-4a4b-8080-7173eedbeb64",
      "last_modified": 1737958890352
    },
    {
      "name": "Edge",
      "schema": 1737504302849,
      "status": "current",
      "version": "132",
      "browserid": "edge",
      "id": "571146ba-02c4-478e-bc83-f5e47b52f7fa",
      "last_modified": 1737958890350
    },
    {
      "name": "WebView Android",
      "schema": 1736553904736,
      "status": "planned",
      "version": "135",
      "browserid": "webview_android",
      "id": "6343cdab-2aab-4579-b90f-8e0bc51b7ea8",
      "last_modified": 1736752583789
    },
    {
      "name": "Firefox for Android",
      "schema": 1736553904370,
      "status": "planned",
      "version": "137",
      "browserid": "firefox_android",
      "id": "8cd76e6f-52a6-4a36-8593-6e253492282e",
      "last_modified": 1736752583786
    },
    {
      "name": "Chrome",
      "schema": 1736553903296,
      "status": "planned",
      "version": "135",
      "browserid": "chrome",
      "id": "64c22b80-2461-4ae0-9dc3-1a770d34c0d0",
      "last_modified": 1736752583783
    },
    {
      "name": "Firefox",
      "schema": 1736553904013,
      "status": "planned",
      "version": "137",
      "browserid": "firefox",
      "id": "257cad93-7ab8-463d-b40f-6d654de9c486",
      "last_modified": 1736752583780
    },
    {
      "name": "Chrome Android",
      "schema": 1736553903657,
      "status": "planned",
      "version": "135",
      "browserid": "chrome_android",
      "id": "fe125b86-cea6-4eee-bb48-f040560a171c",
      "last_modified": 1736752583777
    },
    {
      "name": "Firefox",
      "schema": 1736553903944,
      "status": "nightly",
      "version": "136",
      "browserid": "firefox",
      "id": "87f08750-577a-46be-8dc1-19074b5195c9",
      "last_modified": 1736752583774
    },
    {
      "name": "Firefox for Android",
      "schema": 1736553904299,
      "status": "nightly",
      "version": "136",
      "browserid": "firefox_android",
      "id": "146488cb-e09d-45a5-8ba7-98b3015616c5",
      "last_modified": 1736752583771
    },
    {
      "name": "Firefox for Android",
      "schema": 1736553904230,
      "status": "beta",
      "version": "135",
      "browserid": "firefox_android",
      "id": "fc2912c0-bd89-4886-80c9-dfa627bcd04a",
      "last_modified": 1736752583768
    },
    {
      "name": "Firefox",
      "schema": 1736553903878,
      "status": "beta",
      "version": "135",
      "browserid": "firefox",
      "id": "2feaa9d9-e37a-4269-b131-529c7460cd79",
      "last_modified": 1736752583766
    },
    {
      "name": "Firefox for Android",
      "schema": 1736553904153,
      "status": "current",
      "version": "134",
      "browserid": "firefox_android",
      "id": "f59bacdc-a689-4cda-8d4b-bfc2067f801e",
      "last_modified": 1736752583758
    },
    {
      "name": "WebView Android",
      "schema": 1736553904589,
      "status": "beta",
      "version": "133",
      "browserid": "webview_android",
      "id": "6b510a11-915e-422f-a248-10a0b098bfd8",
      "last_modified": 1736752583756
    },
    {
      "name": "WebView Android",
      "schema": 1736553904518,
      "status": "current",
      "version": "132",
      "browserid": "webview_android",
      "id": "2ed0575d-27fb-40f0-b427-e87d206cead0",
      "last_modified": 1736752583753
    },
    {
      "name": "WebView Android",
      "schema": 1736553904660,
      "status": "nightly",
      "version": "134",
      "browserid": "webview_android",
      "id": "77bd5c76-a752-419e-8abc-897726e0cce1",
      "last_modified": 1736752583750
    },
    {
      "name": "Chrome",
      "schema": 1736553903225,
      "status": "nightly",
      "version": "134",
      "browserid": "chrome",
      "id": "2e5de3a2-ad0c-4b05-a038-a03a3d3d57f8",
      "last_modified": 1736752583748
    },
    {
      "name": "Chrome Android",
      "schema": 1736553903579,
      "status": "nightly",
      "version": "134",
      "browserid": "chrome_android",
      "id": "0dae33fb-0904-4caa-b7de-5dcb8153eba2",
      "last_modified": 1736752583745
    },
    {
      "name": "Chrome Android",
      "schema": 1736553903510,
      "status": "beta",
      "version": "133",
      "browserid": "chrome_android",
      "id": "5c95aa96-b11d-456b-8f8e-ef354a366ec3",
      "last_modified": 1736752583736
    },
    {
      "name": "Chrome Android",
      "schema": 1736553903438,
      "status": "current",
      "version": "132",
      "browserid": "chrome_android",
      "id": "6680e98e-4d87-4775-96ca-dde7b4db2bce",
      "last_modified": 1736752583733
    },
    {
      "name": "Chrome",
      "schema": 1736553903149,
      "status": "beta",
      "version": "133",
      "browserid": "chrome",
      "id": "7a5eebfe-615d-4d27-953b-3e0bb959ca75",
      "last_modified": 1736752583728
    },
    {
      "name": "Chrome",
      "schema": 1736553903072,
      "status": "current",
      "version": "132",
      "browserid": "chrome",
      "id": "96fcfbd4-de88-4023-89fb-e3b876ba7fc7",
      "last_modified": 1736752583726
    },
    {
      "name": "Firefox",
      "schema": 1736553903812,
      "status": "current",
      "version": "134",
      "browserid": "firefox",
      "id": "7c86bf3d-fb86-454d-bd16-66e1ae208816",
      "last_modified": 1736752583721
    },
    {
      "name": "Safari on iOS",
      "schema": 1734739506624,
      "status": "beta",
      "version": "18.3",
      "browserid": "safari_ios",
      "id": "de3f3644-4697-48e2-983f-ecd7e0c4ed85",
      "last_modified": 1735832995468
    },
    {
      "name": "Node.js",
      "schema": 1734480302872,
      "status": "esr",
      "version": "22.3.0",
      "browserid": "nodejs",
      "id": "5ba3aee3-2875-4a2c-938c-0f1f43e28488",
      "last_modified": 1735832995466
    },
    {
      "name": "WebView on iOS",
      "schema": 1734739506691,
      "status": "beta",
      "version": "18.3",
      "browserid": "webview_ios",
      "id": "7a4fb6dc-3392-4860-892d-4d2b1c41c247",
      "last_modified": 1735832995463
    },
    {
      "name": "Safari",
      "schema": 1734686347176,
      "status": "beta",
      "version": "18.3",
      "browserid": "safari",
      "id": "2b38a5bf-5dec-4c58-af33-8a2f90fa2e2f",
      "last_modified": 1735832995461
    },
    {
      "name": "Safari",
      "schema": 1734134703079,
      "status": "current",
      "version": "18.2",
      "browserid": "safari",
      "id": "bd0eb1f4-01c0-4304-ab79-cd0c856f03fd",
      "last_modified": 1735832995458
    },
    {
      "name": "WebView on iOS",
      "schema": 1734134703426,
      "status": "current",
      "version": "18.2",
      "browserid": "webview_ios",
      "id": "99af4b05-47ec-4672-bf4b-b4c61cb512ac",
      "last_modified": 1735832995456
    },
    {
      "name": "Safari on iOS",
      "schema": 1734134703226,
      "status": "current",
      "version": "18.2",
      "browserid": "safari_ios",
      "id": "ce989d45-2e04-4586-8c19-3f9c9a7044be",
      "last_modified": 1735832995454
    },
    {
      "name": "Opera",
      "schema": 1733875503058,
      "status": "beta",
      "version": "116",
      "browserid": "opera",
      "id": "c4c6d639-2e3a-47f9-bac5-1e89d12654df",
      "last_modified": 1733896859512
    },
    {
      "name": "Opera Android",
      "schema": 1733875503280,
      "status": "current",
      "version": "86",
      "browserid": "opera_android",
      "id": "68bb1f4a-24fc-4940-87cc-0b1cb4ff78ae",
      "last_modified": 1733896859509
    },
    {
      "name": "Opera",
      "schema": 1733875503128,
      "status": "nightly",
      "version": "117",
      "browserid": "opera",
      "id": "23c4c5ac-a4ca-4f6c-b486-6fe64db2f72c",
      "last_modified": 1733896859506
    },
    {
      "name": "Opera",
      "schema": 1733875502977,
      "status": "current",
      "version": "115",
      "browserid": "opera",
      "id": "fbf106ac-1d9e-459f-b97e-d6277db4d2f7",
      "last_modified": 1733896859501
    },
    {
      "name": "Samsung Internet",
      "schema": 1731974720014,
      "status": "current",
      "version": "27.0",
      "browserid": "samsunginternet_android",
      "id": "e05f8a82-8aa6-4621-b1ef-3195828ccdc0",
      "last_modified": 1732521556529
    },
    {
      "name": "Node.js",
      "schema": 1731110704254,
      "status": "current",
      "version": "23.0.0",
      "browserid": "nodejs",
      "id": "78b5378c-c23a-4deb-b026-b305f4d17d23",
      "last_modified": 1731397547435
    },
    {
      "name": "Firefox for Android",
      "schema": 1723593904156,
      "status": "esr",
      "version": "128",
      "browserid": "firefox_android",
      "id": "05aa43eb-3966-4fc1-8b33-53c493448d2d",
      "last_modified": 1723628503801
    },
    {
      "name": "Firefox",
      "schema": 1723593903753,
      "status": "esr",
      "version": "128",
      "browserid": "firefox",
      "id": "565161dc-52d8-4cb1-8cf3-8171b960f9e4",
      "last_modified": 1723628503798
    },
    {
      "name": "Quest Browser",
      "schema": 1665650596430,
      "status": "current",
      "version": "23.0",
      "browserid": "oculus",
      "id": "371ced3b-8ff1-4540-a230-bc1827964bda",
      "last_modified": 1665656484764
    }
  ],
  "timestamp": 1737958890365
}
